<?xml version="1.0" encoding="UTF-8"?>
<svg width="20px" height="37px" viewBox="0 0 20 37" version="1.1" xmlns="http://www.w3.org/2000/svg" xmlns:xlink="http://www.w3.org/1999/xlink">
    <!-- Generator: Sketch 47.1 (45422) - http://www.bohemiancoding.com/sketch -->
    <title>Cliente</title>
    <desc>Created with Sketch.</desc>
    <defs></defs>
    <g id="Sobre---Sistran" stroke="none" stroke-width="1" fill="none" fill-rule="evenodd">
        <g id="2-Sobre" transform="translate(-900.000000, -1744.000000)" stroke-width="0.2" stroke="#F3A83A" fill="#F3A83A">
            <g id="Clientes" transform="translate(901.000000, 1745.000000)">
                <g id="Cliente">
                    <path d="M6,1.11106996 C3.82525133,1.11106996 2.05601081,2.97255657 2.05601081,5.26113848 C2.05601081,7.7183808 3.9684464,10.88893 6,10.88893 C8.0311312,10.88893 9.94398919,7.7183808 9.94398919,5.26113848 C9.94398919,2.97255657 8.17474867,1.11106996 6,1.11106996 Z M6,12 C3.0993495,12 1,7.97459353 1,5.26113848 C1,2.36013481 3.24275577,0 6,0 C8.75682183,0 11,2.36013481 11,5.26113848 C11,7.97459353 8.9002281,12 6,12 Z" id="Fill-1"></path>
                    <path d="M3.07059358,24 L1.20712971,24 C0.929655684,24 0.699451866,23.7743494 0.678466435,23.4822125 L0.00142132283,14.0326462 C-0.0117210682,13.8428132 0.066921304,13.6588005 0.210639709,13.5437366 C0.28970603,13.480832 2.19132522,12 6.14040176,12 C10.0901142,12 11.9917334,13.480832 12.0703758,13.5441843 C12.1729712,13.6258931 12.2437706,13.7443149 12.2698434,13.8772876 L13.9889529,22.6572894 C14.0480937,22.9599478 13.8638882,23.2558903 13.5772993,23.3183472 C13.2926181,23.3799086 13.0102687,23.1862699 12.950916,22.8838355 L11.2767449,14.3319466 C10.7824215,14.0203339 9.09849961,13.1192986 6.14040176,13.1192986 C3.32475046,13.1192986 1.66329787,13.9359388 1.08248897,14.2844884 L1.69848556,22.8807014 L3.07059358,22.8807014 C3.36332974,22.8807014 3.6005287,23.1312004 3.6005287,23.4403507 C3.6005287,23.749501 3.36332974,24 3.07059358,24" id="Fill-3"></path>
                    <path d="M8.38728446,35 L4.61271032,35 C4.34933919,35 4.12883284,34.7865262 4.10018762,34.505663 L3.00301396,23.6140659 C2.97251402,23.309705 3.17694608,23.0359354 3.45989488,23.0031274 C3.74408017,22.9709844 3.99673511,23.1902218 4.02744113,23.4945826 L5.07515542,33.891621 L7.92483936,33.891621 L8.97255365,23.4945826 C9.0030536,23.1902218 9.25509029,22.9709844 9.54051207,23.0031274 C9.82346087,23.0359354 10.0274808,23.309705 9.99698082,23.6140659 L8.89918892,34.505663 C8.87116195,34.7865262 8.65003735,35 8.38728446,35" id="Fill-6"></path>
                    <path d="M11.0909091,30.6347234 L14.9090909,31.6941277 L14.9090909,26.1347518 L11.0909091,26.1347518 L11.0909091,30.6347234 Z M15.4545455,33 C15.4076364,33 15.3602909,32.9938723 15.3138182,32.9809362 L10.4047273,31.619234 C10.1662545,31.5527376 10,31.3280567 10,31.070922 L10,25.5673759 C10,25.2539574 10.2441455,25 10.5454545,25 L15.4545455,25 C15.7558545,25 16,25.2539574 16,25.5673759 L16,32.4326241 C16,32.6085106 15.9212364,32.7753191 15.7868364,32.8824397 C15.6901818,32.9591489 15.5734545,33 15.4545455,33 L15.4545455,33 Z" id="Fill-8"></path>
                    <path d="M14.4119372,24.9999982 C14.3923634,24.9999982 14.3723448,24.9989236 14.3523261,24.9974908 C14.0469308,24.9713415 13.8258361,24.7505058 13.8585332,24.5045955 C13.9219255,24.0156406 13.8876714,23.1767157 13.6116367,22.930089 C13.5769377,22.8991039 13.5564742,22.8955219 13.5217753,22.8955219 C13.4884109,22.8955219 13.4634988,22.8980293 13.4219045,22.9343875 C13.1374175,23.1833426 13.0800308,24.0244167 13.1302998,24.5144463 C13.1561016,24.7607148 12.9287789,24.977252 12.6229386,24.9982072 C12.3188779,25.020237 12.0481814,24.836655 12.0221572,24.5900283 C11.9939087,24.3224464 11.8886997,22.9546263 12.60292,22.3288356 C12.8480371,22.1137313 13.1658885,22 13.5217753,22 C13.8792191,22 14.1964032,22.1148059 14.4388511,22.3317013 C15.1412827,22.9601785 14.9998177,24.3312225 14.9644515,24.5995209 C14.9342011,24.8293118 14.6926429,24.9999982 14.4119372,24.9999982" id="Fill-10"></path>
                    <path d="M16.1881188,31.8652482 L16.8118812,31.8652482 L16.8118812,26.1347518 L16.1881188,26.1347518 L16.1881188,31.8652482 Z M17.4059406,33 L15.5940594,33 C15.265901,33 15,32.7460426 15,32.4326241 L15,25.5673759 C15,25.2539574 15.265901,25 15.5940594,25 L17.4059406,25 C17.7338614,25 18,25.2539574 18,25.5673759 L18,32.4326241 C18,32.7460426 17.7338614,33 17.4059406,33 L17.4059406,33 Z" id="Fill-12"></path>
                </g>
            </g>
        </g>
    </g>
</svg>