<?xml version="1.0" encoding="UTF-8"?>
<svg width="28px" height="64px" viewBox="0 0 28 64" version="1.1" xmlns="http://www.w3.org/2000/svg" xmlns:xlink="http://www.w3.org/1999/xlink">
    <!-- Generator: Sketch 47.1 (45422) - http://www.bohemiancoding.com/sketch -->
    <title>Group 19</title>
    <desc>Created with Sketch.</desc>
    <defs></defs>
    <g id="Sobre---Sistran" stroke="none" stroke-width="1" fill="none" fill-rule="evenodd">
        <g id="2-Sobre" transform="translate(-876.000000, -6844.000000)" stroke="#002E62">
            <g id="Group-14" transform="translate(134.000000, 6796.000000)">
                <g id="Group-7" transform="translate(730.000000, 49.000000)">
                    <g id="Group-19" transform="translate(12.000000, 0.000000)">
                        <path d="M27,42.8074866 C27,44.7326299 26.6302854,46.4545379 25.8908451,47.973262 C25.1514048,49.4919862 24.1690202,50.7753958 22.943662,51.8235294 C21.7183037,52.871663 20.2711351,53.6630989 18.6021127,54.197861 C16.9330902,54.732623 15.1901499,55 13.3732394,55 C10.5844931,55 8.03874391,54.4973312 5.73591549,53.4919786 C3.43308708,52.486626 1.52113437,51.1283508 0,49.4171123 L1.07746479,48.4545455 C2.68310662,50.2085649 4.55280623,51.5240598 6.68661972,52.4010695 C8.8204332,53.2780793 11.0281576,53.7165775 13.3098592,53.7165775 C14.9577547,53.7165775 16.5211194,53.4705907 18,52.9786096 C19.4788806,52.4866286 20.7887267,51.7807533 21.9295775,50.8609626 C23.0704282,49.9411719 23.9683066,48.8074934 24.6232394,47.459893 C25.2781723,46.1122927 25.6056338,44.5615061 25.6056338,42.8074866 C25.6056338,41.0534672 25.2464825,39.5775461 24.528169,38.3796791 C23.8098556,37.1818122 22.8802874,36.1550845 21.7394366,35.2994652 C20.5985858,34.443846 19.2993031,33.7272756 17.8415493,33.1497326 C16.3837955,32.5721896 14.9155004,32.0481307 13.4366197,31.5775401 C11.5774555,30.9786066 9.87676827,30.3475969 8.33450704,29.684492 C6.79224581,29.0213871 5.4612732,28.208561 4.3415493,27.2459893 C3.22182539,26.2834176 2.35563687,25.128349 1.74295775,23.7807487 C1.13027863,22.4331483 0.823943662,20.7968011 0.823943662,18.8716578 C0.823943662,16.9892954 1.19365827,15.3101678 1.93309859,13.8342246 C2.67253891,12.3582814 3.67605,11.1176521 4.94366197,10.1122995 C6.21127394,9.10694684 7.67956912,8.33690107 9.34859155,7.80213904 C11.017614,7.26737701 12.7816808,7 14.6408451,7 C16.9225466,7 19.0880179,7.43849829 21.1373239,8.31550802 C23.18663,9.19251775 24.8661906,10.4438421 26.1760563,12.0695187 L25.0985915,13.0320856 C23.915487,11.5347519 22.4049388,10.3689881 20.5669014,9.53475936 C18.728864,8.70053059 16.7324051,8.28342246 14.5774648,8.28342246 C13.0563304,8.28342246 11.5669087,8.49732406 10.1091549,8.92513369 C8.65140116,9.35294332 7.33099183,10.0053432 6.14788732,10.8823529 C4.96478282,11.7593627 4.0140881,12.8609559 3.29577465,14.1871658 C2.5774612,15.5133756 2.21830986,17.0748573 2.21830986,18.8716578 C2.21830986,20.6256772 2.5352081,22.1122934 3.16901408,23.3315508 C3.80282007,24.5508082 4.64788204,25.588231 5.70422535,26.4438503 C6.76056866,27.2994695 7.9542187,28.0053448 9.28521127,28.5614973 C10.6162038,29.1176498 11.9788663,29.6310137 13.3732394,30.1016043 C15.2746574,30.7433187 17.0492875,31.3957186 18.6971831,32.0588235 C20.3450787,32.7219284 21.7922473,33.5240595 23.0387324,34.4652406 C24.2852175,35.4064218 25.2570388,36.5507954 25.9542254,37.8983957 C26.6514119,39.245996 27,40.8823433 27,42.8074866 Z" id="S" fill="#002E62" stroke-linejoin="round"></path>
                        <path d="M14,0.5 L14,61.704575" id="Line" stroke-width="2" stroke-linecap="round"></path>
                    </g>
                </g>
            </g>
        </g>
    </g>
</svg>