<?xml version="1.0" encoding="UTF-8"?>
<svg width="66px" height="62px" viewBox="0 0 66 62" version="1.1" xmlns="http://www.w3.org/2000/svg" xmlns:xlink="http://www.w3.org/1999/xlink">
    <!-- Generator: Sketch 47.1 (45422) - http://www.bohemiancoding.com/sketch -->
    <title>Page 1</title>
    <desc>Created with Sketch.</desc>
    <defs></defs>
    <g id="Sobre---Sistran" stroke="none" stroke-width="1" fill="none" fill-rule="evenodd">
        <g id="2-Sobre" transform="translate(-688.000000, -3356.000000)" fill="#002E62">
            <g id="Group-10" transform="translate(286.000000, 2920.000000)">
                <g id="Page-1" transform="translate(402.000000, 436.000000)">
                    <path d="M33.8839039,62 C33.6696423,62 33.455217,61.9272858 33.312376,61.7818575 C32.9552734,61.454477 32.8838529,60.8727637 33.2052452,60.5090261 C34.9910856,58.3636246 35.2767677,53.8181554 35.5269033,49.7818521 C35.8482956,44.4363603 36.1339777,39.3818919 39.9199201,39.3818919 C43.3130497,39.3818919 44.2059699,42.9453864 44.9560491,46.0727626 C45.8132591,49.4908287 46.4562075,51.6000398 48.4920198,51.6000398 C48.5634403,51.6000398 49.8491733,51.4909686 51.6350138,42.763601 C52.7780696,37.1272525 53.7781206,29.8181446 54.7424613,22.7637032 C55.3854098,17.9999247 55.9210636,14.1454068 56.421171,11.0909115 C56.421171,11.0181974 56.421171,10.9454832 56.4568813,10.872769 C57.8140348,2.43642487 58.7426653,0 60.3499545,0 C64.7431351,0 65.8146066,9.3817951 65.9931579,11.2363399 C66.0288681,11.4908394 65.9217373,11.7455058 65.7431861,11.9272912 C65.5646348,12.1090766 65.3144992,12.2181479 65.0645274,12.2181479 L58.0640066,12.0000054 C57.5283528,15.4909524 56.9925351,19.3818274 56.4925915,22.9454886 C53.6709898,43.5999806 51.9565699,53.3455133 48.4563095,53.3455133 C44.8846286,53.3455133 43.9917084,49.6727809 43.2059189,46.4726905 C42.3844192,43.1636956 41.7414708,41.1271987 39.8842098,41.1271987 C37.7769771,41.1271987 37.5270053,45.3454542 37.2770335,49.8545663 C36.9911876,54.3636784 36.7412158,59.054576 34.5625626,61.6727863 C34.3838475,61.8909288 34.1338757,62 33.8839039,62 Z M58.3855627,10.2181748 L64.1001866,10.3999602 C63.6359533,6.65451357 62.3143462,2.07268727 60.4927955,1.85454477 C59.8141368,2.54549612 59.0999317,5.92720514 58.3855627,10.2181748 Z" id="Fill-1"></path>
                    <path d="M20.9177976,36 C20.8460429,36 20.8101656,36 20.738411,36 C20.235964,35.8913676 19.9130682,35.4204613 20.0207001,34.9497211 C20.9895522,29.6257388 21.7790177,23.722384 22.4608513,18.5070341 C24.3626781,4.52717885 25.1521436,0 27.448621,0 L60.1029025,0 C60.6053495,0 61,0.398318653 61,0.905435771 C61,1.41238678 60.6053495,1.81087154 60.1029025,1.81087154 L27.5203756,1.81087154 C26.3721369,2.82493967 25.188021,11.6620327 24.2550462,18.7605096 C23.5732126,23.9758595 22.7837471,29.9154251 21.7790177,35.2756182 C21.7431404,35.7103137 21.3484899,36 20.9177976,36 Z" id="Fill-2"></path>
                    <path d="M34.0888621,62 L0.923510983,62 C0.5591227,62 0.231006095,61.7785319 0.0852507819,61.4461605 C-0.0605045313,61.1139584 -0.024065703,60.744845 0.231006095,60.4493849 C2.05328181,58.271277 2.34495959,53.6565125 2.60003139,49.5586761 C2.92798084,44.1316927 3.21965862,39 7.08284302,39 C7.59298661,39 7.99398087,39.4061941 7.99398087,39.9229529 C7.99398087,40.439881 7.59298661,40.8459058 7.08284302,40.8459058 C4.9324507,40.8459058 4.6773789,45.1284683 4.4223071,49.7063215 C4.20367413,53.5088671 3.94843518,57.4221468 2.60003139,60.1540942 L34.0888621,60.1540942 C34.5990057,60.1540942 35,60.560119 35,61.0770471 C35,61.5939752 34.5625669,62 34.0888621,62 Z" id="Fill-3"></path>
                    <path d="M40.0885356,41 L6.91146443,41 C6.40097078,41 6,40.5600807 6,40 C6,39.4401027 6.40097078,39 6.91146443,39 L40.0885356,39 C40.5990292,39 41,39.4401027 41,40 C41,40.5600807 40.5990292,41 40.0885356,41 Z" id="Fill-4"></path>
                    <path d="M47.1192438,53 L35.8807562,53 C35.3876232,53 35,52.5598973 35,52 C35,51.4399193 35.3876232,51 35.8807562,51 L47.1192438,51 C47.6125384,51 48,51.4399193 48,52 C48,52.5598973 47.6125384,53 47.1192438,53 Z" id="Fill-5"></path>
                    <path d="M42.0687684,10 L30.9312316,10 C30.4096667,10 30,9.55989727 30,9 C30,8.43991928 30.4096667,8 30.9312316,8 L42.0687684,8 C42.5901624,8 43,8.43991928 43,9 C43,9.55989727 42.5901624,10 42.0687684,10 Z" id="Fill-6"></path>
                    <path d="M50.112898,15 L29.887102,15 C29.390416,15 29,14.5600807 29,14 C29,13.4401027 29.390416,13 29.887102,13 L50.112898,13 C50.6097467,13 51,13.4401027 51,14 C51,14.5600807 50.6097467,15 50.112898,15 Z" id="Fill-7"></path>
                    <path d="M50.1129045,21 L29.8870955,21 C29.3904131,21 29,20.5600807 29,20 C29,19.4401027 29.3904131,19 29.8870955,19 L50.1129045,19 C50.6095869,19 51,19.4401027 51,20 C51,20.5600807 50.6095869,21 50.1129045,21 Z" id="Fill-8"></path>
                    <path d="M49.112898,26 L28.887102,26 C28.3902533,26 28,25.5600807 28,25 C28,24.4399193 28.3902533,24 28.887102,24 L49.112898,24 C49.6097467,24 50,24.4399193 50,25 C50,25.5600807 49.5742691,26 49.112898,26 Z" id="Fill-9"></path>
                    <path d="M48.112898,31 L27.887102,31 C27.3902533,31 27,30.5598973 27,30 C27,29.4399193 27.3902533,29 27.887102,29 L48.112898,29 C48.6097467,29 49,29.4399193 49,30 C49,30.5598973 48.6097467,31 48.112898,31 Z" id="Fill-10"></path>
                </g>
            </g>
        </g>
    </g>
</svg>