<?xml version="1.0" encoding="UTF-8"?>
<svg width="55px" height="46px" viewBox="0 0 55 46" version="1.1" xmlns="http://www.w3.org/2000/svg" xmlns:xlink="http://www.w3.org/1999/xlink">
    <!-- Generator: Sketch 47.1 (45422) - http://www.bohemiancoding.com/sketch -->
    <title>grafico 2</title>
    <desc>Created with Sketch.</desc>
    <defs></defs>
    <g id="Sobre---Sistran" stroke="none" stroke-width="1" fill="none" fill-rule="evenodd">
        <g id="2-Sobre" transform="translate(-864.000000, -6941.000000)" fill="#002E62">
            <g id="Group-14" transform="translate(134.000000, 6796.000000)">
                <g id="Group-8" transform="translate(730.000000, 140.200000)">
                    <g id="grafico-2" transform="translate(0.000000, 5.000000)">
                        <path d="M47.6415423,16.9114155 C44.3513803,16.9114155 41.9824296,12.6341972 41.9824296,9.73887324 C41.9824296,6.61324648 44.5159155,4.07976056 47.6415423,4.07976056 C50.767169,4.07976056 53.3006549,6.61324648 53.3006549,9.73887324 C53.3006549,12.6341972 50.9317042,16.9114155 47.6415423,16.9114155 Z M47.6415423,5.72488028 C45.4371268,5.72488028 43.6275493,7.53445775 43.6275493,9.73887324 C43.6275493,12.140669 45.5687394,15.2663732 47.6415423,15.2663732 C49.7143451,15.2663732 51.6555352,12.140669 51.6555352,9.73887324 C51.6555352,7.53445775 49.8459577,5.72488028 47.6415423,5.72488028 Z" id="Fill-1"></path>
                        <path d="M52.9387394,31.5855704 L50.9317042,31.5855704 C50.4710986,31.5855704 50.1091831,31.2236549 50.1091831,30.7629718 C50.1091831,30.3023662 50.4710986,29.9404507 50.9317042,29.9404507 L52.1819859,29.9404507 L52.8071268,21.5834718 C52.1161408,21.2215563 50.4052535,20.4977254 47.6415423,20.4977254 C43.9236972,20.4977254 42.1140423,21.7808521 42.0811972,21.7808521 C41.7850493,22.0111549 41.3902113,22.0111549 41.0941408,21.7808521 L32.9345423,15.9243592 C32.5726268,15.6611338 32.4739366,15.1347606 32.7370845,14.7728451 C33.0003099,14.4109296 33.5267606,14.312162 33.8886761,14.5753873 L41.587669,20.1028873 C42.4759577,19.6422817 44.4500704,18.8196831 47.5757746,18.8196831 C51.9187606,18.8196831 54.0244859,20.3661127 54.1231761,20.4318803 C54.3534789,20.5964155 54.4850915,20.8596408 54.452169,21.1557113 L53.728338,30.7958944 C53.728338,31.2565 53.3993451,31.5855704 52.9387394,31.5855704 Z" id="Fill-2"></path>
                        <path d="M49.7472676,42.9694859 L45.5687394,42.9694859 C45.1410563,42.9694859 44.8119859,42.640493 44.7462183,42.2456549 L43.5288592,31.0261972 C43.4959366,30.5655915 43.7920845,30.1707535 44.2526901,30.1049859 C44.7132958,30.0391408 45.1081338,30.3682113 45.1739014,30.8288169 L46.325493,41.2915211 L49.0234366,41.2915211 L50.1749507,30.8288169 C50.2078732,30.3682113 50.6355563,30.0391408 51.0962394,30.1049859 C51.5568451,30.1379085 51.885838,30.5655915 51.8200704,31.0261972 L50.6027113,42.2456549 C50.5040211,42.6734155 50.1421056,42.9694859 49.7472676,42.9694859 Z" id="Fill-3"></path>
                        <path d="M24.8736338,42.9694859 C24.5774859,42.9694859 24.3142606,42.8378732 24.1498028,42.5747254 L18.4906901,32.8029296 L12.8645,42.5747254 C12.6341972,42.9694859 12.140669,43.1010986 11.7459085,42.8707958 C11.3510704,42.640493 11.2194577,42.1469648 11.4497606,41.7521268 L17.7997817,30.7629718 C17.9313944,30.4998239 18.2274648,30.3682113 18.5236127,30.3682113 C18.8197606,30.3682113 19.0829085,30.532669 19.2474437,30.7629718 L25.5974648,41.7521268 C25.8277676,42.1469648 25.6961549,42.640493 25.3013169,42.8707958 C25.1368592,42.9366408 25.0052465,42.9694859 24.8736338,42.9694859 Z" id="Fill-4"></path>
                        <path d="M36.1917817,31.5855704 L0.822521127,31.5855704 C0.361915493,31.5855704 0,31.2236549 0,30.7629718 L0,0.822521127 C0,0.361915493 0.361915493,0 0.822521127,0 L36.1917817,0 C36.6523873,0 37.0143028,0.361915493 37.0143028,0.822521127 L37.0143028,11.6800634 C37.0143028,12.140669 36.6523873,12.5025845 36.1917817,12.5025845 C35.7311761,12.5025845 35.3692606,12.140669 35.3692606,11.6800634 L35.3692606,1.64504225 L1.64504225,1.64504225 L1.64504225,29.9404507 L35.3692606,29.9404507 L35.3692606,22.9652887 C35.3692606,22.5046831 35.7311761,22.1427676 36.1917817,22.1427676 C36.6523873,22.1427676 37.0143028,22.5046831 37.0143028,22.9652887 L37.0143028,30.7629718 C37.0143028,31.2236549 36.6523873,31.5855704 36.1917817,31.5855704 Z" id="Fill-5"></path>
                        <path d="M18.4906901,45.0752113 C18.0300845,45.0752113 17.668169,44.7132958 17.668169,44.2526901 L17.668169,31.1578099 C17.668169,30.6972042 18.0300845,30.3352887 18.4906901,30.3352887 C18.9512958,30.3352887 19.3132887,30.6972042 19.3132887,31.1578099 L19.3132887,44.2526901 C19.3461338,44.7132958 18.9512958,45.0752113 18.4906901,45.0752113 Z" id="Fill-6"></path>
                        <path d="M35.3034155,5.72488028 L0.822521127,5.72488028 C0.361915493,5.72488028 0,5.36296479 0,4.90235915 C0,4.44167606 0.361915493,4.07976056 0.822521127,4.07976056 L35.3034155,4.07976056 C35.7640986,4.07976056 36.1260141,4.44167606 36.1260141,4.90235915 C36.1260141,5.36296479 35.7640986,5.72488028 35.3034155,5.72488028 Z" id="Fill-7"></path>
                        <path d="M5.0668169,8.21723239 C4.77074648,8.21723239 4.50752113,8.34884507 4.34298592,8.64491549 C4.1126831,9.03975352 4.24429577,9.53328169 4.6391338,9.76358451 L9.04796479,12.296993 C9.27826761,12.4286056 9.54149296,12.4286056 9.77179577,12.362838 L14.1806268,10.6190282 L18.4578451,18.4496338 C18.5893803,18.7128592 18.8526056,18.8773169 19.1487535,18.8773169 C19.4448239,18.8773169 19.7080493,18.7457042 19.8725845,18.5154014 L23.8536549,12.3957606 L30.8617394,21.1146549 C31.1578099,21.4765704 31.651338,21.509493 32.0132535,21.2462676 C32.375169,20.9501197 32.4080915,20.4565915 32.1448662,20.0946761 L24.4458732,10.4874155 C24.2814155,10.2900352 24.0181901,10.1584225 23.7549648,10.1913451 C23.4917394,10.1913451 23.2614366,10.3558028 23.0969014,10.5532606 L19.2474437,16.4425986 L15.2992183,9.1713662 C15.101838,8.8094507 14.6741549,8.64491549 14.2793169,8.8094507 L9.54149296,10.6848732 L5.46165493,8.34884507 C5.33004225,8.25015493 5.19842958,8.21723239 5.0668169,8.21723239 Z" id="Fill-8"></path>
                    </g>
                </g>
            </g>
        </g>
    </g>
</svg>