<?xml version="1.0" encoding="UTF-8"?>
<svg width="19px" height="28px" viewBox="0 0 19 28" version="1.1" xmlns="http://www.w3.org/2000/svg" xmlns:xlink="http://www.w3.org/1999/xlink">
    <!-- Generator: Sketch 47.1 (45422) - http://www.bohemiancoding.com/sketch -->
    <title>Local</title>
    <desc>Created with Sketch.</desc>
    <defs></defs>
    <g id="imagens" stroke="none" stroke-width="1" fill="none" fill-rule="evenodd">
        <g id="Sobre-img-mapa-Copy" transform="translate(-278.000000, -411.000000)" stroke="#F3A83A" fill="#F3A83A">
            <g id="Local" transform="translate(279.000000, 412.000000)">
                <path d="M8.47143628,13 C8.25606004,13 8.03953383,12.9850349 7.82267904,12.9542914 C5.91534262,12.6860581 4.38191643,11.2472931 4.00784192,9.37405199 C3.96397811,9.15364198 4.10854797,8.93973854 4.33098841,8.89614453 C4.55359313,8.85108655 4.7696265,8.99569503 4.81349031,9.21610504 C5.12037269,10.7506792 6.37583048,11.9293441 7.93849921,12.1492662 C8.92124567,12.2880187 9.89988504,12.0386545 10.693705,11.4470447 C11.4878535,10.8557603 12.0018979,9.99331466 12.1412107,9.01846802 C12.4296933,7.00549837 11.0130729,5.13551056 8.98350928,4.85019753 C7.42921903,4.62978751 5.89874994,5.40813578 5.16965787,6.78378704 C5.06451615,6.98305071 4.81611885,7.05934022 4.61519961,6.95507246 C4.41444464,6.85047937 4.33706691,6.60501907 4.44237291,6.40608074 C5.33246324,4.72641006 7.20497147,3.7771017 9.09900089,4.044847 C11.5767311,4.39343641 13.3063123,6.675778 12.9545804,9.1326583 C12.784218,10.3223844 12.1569819,11.3753098 11.1875425,12.0970509 C10.3930654,12.6886607 9.4474471,13 8.47143628,13" id="Fill-1"></path>
                <g id="Group-5">
                    <path d="M8.48391398,0.923541247 C4.3095914,0.923541247 0.913978495,4.35985352 0.913978495,8.58357706 C0.913978495,12.3303839 6.89231183,22.299827 8.48391398,24.8872201 C9.41032258,23.3822173 11.8217634,19.3777425 13.6696452,15.5601924 C14.8420968,13.1366354 15.5915591,11.1997847 15.8971935,9.80283622 C16.0006559,9.33146076 16.0531183,8.92159316 16.0531183,8.58357706 C16.0531183,7.99952958 15.9878602,7.41714447 15.8593548,6.85304547 C15.0623656,3.36187485 12.0294194,0.923541247 8.48391398,0.923541247 M8.48391398,26.2176736 C8.32780645,26.2176736 8.18303226,26.137695 8.09876344,26.0048897 C7.76808602,25.4821654 0,13.1521509 0,8.58357706 C0,3.85079759 3.80580645,0 8.48391398,0 C12.4575269,0 15.8567957,2.73275855 16.7501183,6.64580282 C16.8939785,7.27787445 16.9670968,7.92989457 16.9670968,8.58357706 C16.9670968,8.98864225 16.9071398,9.46592837 16.7894194,10.0026905 C16.4684301,11.4703823 15.6946559,13.476868 14.4907634,15.965627 C12.1436667,20.8149573 8.90123656,25.9533561 8.86869892,26.0048897 C8.7847957,26.137695 8.63965591,26.2176736 8.48391398,26.2176736" id="Fill-3"></path>
                </g>
            </g>
        </g>
    </g>
</svg>